AdderFullSim/AdderFullSim.sim/sim_1/behav/xsim/dump.vcd
$date
   Fri Jun 11 16:04:16 2021
$end
$version
  2020.1
$end
$timescale
  1ps
$end
$scope module Adder_TB $end
$var reg 1 ! clk $end
$var reg 1 " reset $end
$scope module i_interf $end
$var wire 1 # clk $end
$var wire 1 $ reset $end
$var reg 4 % bitA [3:0] $end
$var reg 4 & bitB [3:0] $end
$var reg 5 ' sum [4:0] $end
$upscope $end
$scope module test1 $end
$var reg 32 ( env [3:0] $end
$scope module interf $end
$var wire 1 # clk $end
$var wire 1 $ reset $end
$var reg 4 % bitA [3:0] $end
$var reg 4 & bitB [3:0] $end
$var reg 5 ' sum [4:0] $end
$upscope $end
$upscope $end
$scope module DUT $end
$var wire 1 ) clk $end
$var wire 1 * reset $end
$var wire 4 + bitA [3:0] $end
$var wire 4 , bitB [3:0] $end
$var wire 5 - sum [4:0] $end
$var reg 5 . internal_sum [4:0] $end
$upscope $end
$upscope $end
$enddefinitions $end
#0
$dumpvars
0!
1"
0#
1$
bx %
bx &
bx '
b100000001100110000000000111000 (
0)
1*
bx +
bx ,
bx -
bx .
$end
#5000
1!
1#
b1011 %
b1100 &
b0 '
1)
b1011 +
b1100 ,
bx .
#10000
0!
0#
0)
#15000
1!
1#
b10111 '
1)
b10111 -
b10111 .
#20000
0!
0"
0#
0$
0)
0*
#25000
1!
1#
b1100 %
b11 &
b0 '
1)
b1100 +
b11 ,
b10111 .
#30000
0!
0#
0)
#35000
1!
1#
b1111 '
1)
b1111 -
b1111 .
#40000
0!
0#
0)
#45000
1!
1#
b1001 %
b1011 &
b0 '
1)
b1001 +
b1011 ,
b1111 .
#50000
0!
0#
0)
#55000
1!
1#
b10100 '
1)
b10100 -
b10100 .
#60000
0!
0#
0)
#65000
1!
1#
b11 %
b1010 &
b0 '
1)
b11 +
b1010 ,
b10100 .
#70000
0!
0#
0)
#75000
1!
1#
b1101 '
1)
b1101 -
b1101 .
#80000
0!
0#
0)
#85000
1!
1#
b1010 %
b1100 &
b0 '
1)
b1010 +
b1100 ,
b1101 .
#90000
0!
0#
0)
#95000
1!
1#
b10110 '
1)
b10110 -
b10110 .
#100000
0!
0#
0)
#105000
1!
1#
b1101 %
b1010 &
b0 '
1)
b1101 +
b1010 ,
b10110 .
#110000
0!
0#
0)
#115000
1!
1#
b10111 '
1)
b10111 -
b10111 .
#120000
0!
0#
0)
#125000
1!
1#
b1111 %
b10 &
b0 '
1)
b1111 +
b10 ,
b10111 .
#130000
0!
0#
0)
#135000
1!
1#
b10001 '
1)
b10001 -
b10001 .
#140000
0!
0#
0)
#145000
1!
1#
b1011 %
b100 &
b0 '
1)
b1011 +
b100 ,
b10001 .
#150000
0!
0#
0)
#155000
1!
1#
b1111 '
1)
b1111 -
b1111 .
#160000
0!
0#
0)
#165000
1!
1#
b110 %
b111 &
b0 '
1)
b110 +
b111 ,
b1111 .
#170000
0!
0#
0)
#175000
1!
1#
b1101 '
1)
b1101 -
b1101 .
#180000
0!
0#
0)
#185000
1!
1#
b1001 %
b111 &
b0 '
1)
b1001 +
b1101 .
#190000
0!
0#
0)
#195000
1!
1#
b10000 '
1)
b10000 -
b10000 .
#200000
0!
0#
0)
#205000
1!
1#
b10 %
b1111 &
b0 '
1)
b10 +
b1111 ,
b10000 .
#210000
0!
0#
0)
#215000
1!
1#
b10001 '
1)
b10001 -
b10001 .
#220000
0!
0#
0)
#225000
1!
1#
b1001 %
b1101 &
b0 '
1)
b1001 +
b1101 ,
b10001 .
#230000
0!
0#
0)
#235000
1!
1#
b10110 '
1)
b10110 -
b10110 .
#240000
0!
0#
0)
#245000
1!
1#
b1100 %
b1000 &
b0 '
1)
b1100 +
b1000 ,
b10110 .
#250000
0!
0#
0)
#255000
1!
1#
b10100 '
1)
b10100 -
b10100 .
#260000
0!
0#
0)
#265000
1!
1#
b1 %
b10 &
b0 '
1)
b1 +
b10 ,
b10100 .
#270000
0!
0#
0)
#275000
1!
1#
b11 '
1)
b11 -
b11 .
#280000
0!
0#
0)
#285000
1!
1#
b1100 %
b1000 &
b0 '
1)
b1100 +
b1000 ,
b11 .
#290000
0!
0#
0)
#295000
1!
1#
b10100 '
1)
b10100 -
b10100 .
#300000
0!
0#
0)
#305000
1!
1#
b1101 %
b101 &
b0 '
1)
b1101 +
b101 ,
b10100 .
#310000
0!
0#
0)
#315000
1!
1#
b10010 '
1)
b10010 -
b10010 .
#320000
0!
0#
0)
#325000
1!
1#
b1001 %
b10 &
b0 '
1)
b1001 +
b10 ,
b10010 .
#330000
0!
0#
0)
#335000
1!
1#
b1011 '
1)
b1011 -
b1011 .
#340000
0!
0#
0)
#345000
1!
1#
b111 %
b1 &
b0 '
1)
b111 +
b1 ,
b1011 .
#350000
0!
0#
0)
#355000
1!
1#
b1000 '
1)
b1000 -
b1000 .
#360000
0!
0#
0)
#365000
1!
1#
b1001 %
b1 &
b0 '
1)
b1001 +
b1000 .
#370000
0!
0#
0)
#375000
1!
1#
b1010 '
1)
b1010 -
b1010 .
#380000
0!
0#
0)
#385000
1!
1#
b10 %
b1010 &
b0 '
1)
b10 +
b1010 ,
b1010 .
#390000
0!
0#
0)
#395000
1!
1#
b1100 '
1)
b1100 -
b1100 .
#400000
0!
0#
0)
#405000
1!
1#
1)
b1100 .
#410000
0!
0#
0)
#415000
1!
1#
1)
b1100 .
#420000
0!
0#
0)
#425000
1!
1#
1)
b1100 .
#430000
0!
0#
0)
#435000
1!
1#
1)
b1100 .
#440000
0!
0#
0)
#445000
1!
1#
1)
b1100 .
#450000
0!
0#
0)
#455000
1!
1#
1)
b1100 .
#460000
0!
0#
0)
#465000
1!
1#
1)
b1100 .
#470000
0!
0#
0)
#475000
1!
1#
1)
b1100 .
#480000
0!
0#
0)
#485000
1!
1#
1)
b1100 .
#490000
0!
0#
0)
#495000
1!
1#
1)
b1100 .
#500000
0!
0#
0)
#505000
1!
1#
1)
b1100 .
#510000
0!
0#
0)
#515000
1!
1#
1)
b1100 .
#520000
0!
0#
0)
#525000
1!
1#
1)
b1100 .
#530000
0!
0#
0)
#535000
1!
1#
1)
b1100 .
#540000
0!
0#
0)
#545000
1!
1#
1)
b1100 .
#550000
0!
0#
0)
#555000
1!
1#
1)
b1100 .
#560000
0!
0#
0)
#565000
1!
1#
1)
b1100 .
#570000
0!
0#
0)
#575000
1!
1#
1)
b1100 .
#580000
0!
0#
0)
#585000
1!
1#
1)
b1100 .
#590000
0!
0#
0)
#595000
1!
1#
1)
b1100 .
#600000
0!
0#
0)
#605000
1!
1#
1)
b1100 .
#610000
0!
0#
0)
#615000
1!
1#
1)
b1100 .
#620000
0!
0#
0)
#625000
1!
1#
1)
b1100 .
#630000
0!
0#
0)
#635000
1!
1#
1)
b1100 .
#640000
0!
0#
0)
#645000
1!
1#
1)
b1100 .
#650000
0!
0#
0)
#655000
1!
1#
1)
b1100 .
#660000
0!
0#
0)
#665000
1!
1#
1)
b1100 .
#670000
0!
0#
0)
#675000
1!
1#
1)
b1100 .
#680000
0!
0#
0)
#685000
1!
1#
1)
b1100 .
#690000
0!
0#
0)
#695000
1!
1#
1)
b1100 .
#700000
0!
0#
0)
#705000
1!
1#
1)
b1100 .
#710000
0!
0#
0)
#715000
1!
1#
1)
b1100 .
#720000
0!
0#
0)
#725000
1!
1#
1)
b1100 .
#730000
0!
0#
0)
#735000
1!
1#
1)
b1100 .
#740000
0!
0#
0)
#745000
1!
1#
1)
b1100 .
#750000
0!
0#
0)
#755000
1!
1#
1)
b1100 .
#760000
0!
0#
0)
#765000
1!
1#
1)
b1100 .
#770000
0!
0#
0)
#775000
1!
1#
1)
b1100 .
#780000
0!
0#
0)
#785000
1!
1#
1)
b1100 .
#790000
0!
0#
0)
#795000
1!
1#
1)
b1100 .
#800000
0!
0#
0)
#805000
1!
1#
1)
b1100 .
#810000
0!
0#
0)
#815000
1!
1#
1)
b1100 .
#820000
0!
0#
0)
#825000
1!
1#
1)
b1100 .
#830000
0!
0#
0)
#835000
1!
1#
1)
b1100 .
#840000
0!
0#
0)
#845000
1!
1#
1)
b1100 .
#850000
0!
0#
0)
#855000
1!
1#
1)
b1100 .
#860000
0!
0#
0)
#865000
1!
1#
1)
b1100 .
#870000
0!
0#
0)
#875000
1!
1#
1)
b1100 .
#880000
0!
0#
0)
#885000
1!
1#
1)
b1100 .
#890000
0!
0#
0)
#895000
1!
1#
1)
b1100 .
#900000
0!
0#
0)
#905000
1!
1#
1)
b1100 .
#910000
0!
0#
0)
#915000
1!
1#
1)
b1100 .
#920000
0!
0#
0)
#925000
1!
1#
1)
b1100 .
#930000
0!
0#
0)
#935000
1!
1#
1)
b1100 .
#940000
0!
0#
0)
#945000
1!
1#
1)
b1100 .
#950000
0!
0#
0)
#955000
1!
1#
1)
b1100 .
#960000
0!
0#
0)
#965000
1!
1#
1)
b1100 .
#970000
0!
0#
0)
#975000
1!
1#
1)
b1100 .
#980000
0!
0#
0)
#985000
1!
1#
1)
b1100 .
#990000
0!
0#
0)
#995000
1!
1#
1)
b1100 .
#1000000
0!
0#
0)
#1005000
1!
1#
1)
b1100 .
#1010000
0!
0#
0)
#1015000
1!
1#
1)
b1100 .
#1020000
0!
0#
0)
#1025000
1!
1#
1)
b1100 .
#1030000
0!
0#
0)
#1035000
1!
1#
1)
b1100 .
#1040000
0!
0#
0)
#1045000
1!
1#
1)
b1100 .
#1050000
0!
0#
0)
#1055000
1!
1#
1)
b1100 .
#1060000
0!
0#
0)
#1065000
1!
1#
1)
b1100 .
#1070000
0!
0#
0)
#1075000
1!
1#
1)
b1100 .
#1080000
0!
0#
0)
#1085000
1!
1#
1)
b1100 .
#1090000
0!
0#
0)
#1095000
1!
1#
1)
b1100 .
#1100000
0!
0#
0)
#1105000
1!
1#
1)
b1100 .
#1110000
0!
0#
0)
#1115000
1!
1#
1)
b1100 .
#1120000
0!
0#
0)
#1125000
1!
1#
1)
b1100 .
#1130000
0!
0#
0)
#1135000
1!
1#
1)
b1100 .
#1140000
0!
0#
0)
#1145000
1!
1#
1)
b1100 .
#1150000
0!
0#
0)
#1155000
1!
1#
1)
b1100 .
#1160000
0!
0#
0)
#1165000
1!
1#
1)
b1100 .
#1170000
0!
0#
0)
#1175000
1!
1#
1)
b1100 .
#1180000
0!
0#
0)
#1185000
1!
1#
1)
b1100 .
#1190000
0!
0#
0)
#1195000
1!
1#
1)
b1100 .
#1200000
0!
0#
0)
#1205000
1!
1#
1)
b1100 .
#1210000
0!
0#
0)
#1215000
1!
1#
1)
b1100 .
#1220000
0!
0#
0)
#1225000
1!
1#
1)
b1100 .
#1230000
0!
0#
0)
#1235000
1!
1#
1)
b1100 .
#1240000
0!
0#
0)
#1245000
1!
1#
1)
b1100 .
#1250000
0!
0#
0)
#1255000
1!
1#
1)
b1100 .
#1260000
0!
0#
0)
#1265000
1!
1#
1)
b1100 .
#1270000
0!
0#
0)
#1275000
1!
1#
1)
b1100 .
#1280000
0!
0#
0)
#1285000
1!
1#
1)
b1100 .
#1290000
0!
0#
0)
#1295000
1!
1#
1)
b1100 .
#1300000
0!
0#
0)
#1305000
1!
1#
1)
b1100 .
#1310000
0!
0#
0)
#1315000
1!
1#
1)
b1100 .
#1320000
0!
0#
0)
#1325000
1!
1#
1)
b1100 .
#1330000
0!
0#
0)
#1335000
1!
1#
1)
b1100 .
#1340000
0!
0#
0)
#1345000
1!
1#
1)
b1100 .
#1350000
0!
0#
0)
#1355000
1!
1#
1)
b1100 .
#1360000
0!
0#
0)
#1365000
1!
1#
1)
b1100 .
#1370000
0!
0#
0)
#1375000
1!
1#
1)
b1100 .
#1380000
0!
0#
0)
#1385000
1!
1#
1)
b1100 .
#1390000
0!
0#
0)
#1395000
1!
1#
1)
b1100 .
#1400000
0!
0#
0)
#1405000
1!
1#
1)
b1100 .
#1410000
0!
0#
0)
#1415000
1!
1#
1)
b1100 .
#1420000
0!
0#
0)
#1425000
1!
1#
1)
b1100 .
#1430000
0!
0#
0)
#1435000
1!
1#
1)
b1100 .
#1440000
0!
0#
0)
#1445000
1!
1#
1)
b1100 .
#1450000
0!
0#
0)
#1455000
1!
1#
1)
b1100 .
#1460000
0!
0#
0)
#1465000
1!
1#
1)
b1100 .
#1470000
0!
0#
0)
#1475000
1!
1#
1)
b1100 .
#1480000
0!
0#
0)
#1485000
1!
1#
1)
b1100 .
#1490000
0!
0#
0)
#1495000
1!
1#
1)
b1100 .
#1500000
0!
0#
0)
#1505000
1!
1#
1)
b1100 .
#1510000
0!
0#
0)
#1515000
1!
1#
1)
b1100 .
#1520000
0!
0#
0)
#1525000
1!
1#
1)
b1100 .
#1530000
0!
0#
0)
#1535000
1!
1#
1)
b1100 .
#1540000
0!
0#
0)
#1545000
1!
1#
1)
b1100 .
#1550000
0!
0#
0)
#1555000
1!
1#
1)
b1100 .
#1560000
0!
0#
0)
#1565000
1!
1#
1)
b1100 .
#1570000
0!
0#
0)
#1575000
1!
1#
1)
b1100 .
#1580000
0!
0#
0)
#1585000
1!
1#
1)
b1100 .
#1590000
0!
0#
0)
#1595000
1!
1#
1)
b1100 .
#1600000
0!
0#
0)
#1605000
1!
1#
1)
b1100 .
#1610000
0!
0#
0)
#1615000
1!
1#
1)
b1100 .
#1620000
0!
0#
0)
#1625000
1!
1#
1)
b1100 .
#1630000
0!
0#
0)
#1635000
1!
1#
1)
b1100 .
#1640000
0!
0#
0)
#1645000
1!
1#
1)
b1100 .
#1650000
0!
0#
0)
#1655000
1!
1#
1)
b1100 .
#1660000
0!
0#
0)
#1665000
1!
1#
1)
b1100 .
#1670000
0!
0#
0)
#1675000
1!
1#
1)
b1100 .
#1680000
0!
0#
0)
#1685000
1!
1#
1)
b1100 .
#1690000
0!
0#
0)
#1695000
1!
1#
1)
b1100 .
#1700000
0!
0#
0)
#1705000
1!
1#
1)
b1100 .
#1710000
0!
0#
0)
#1715000
1!
1#
1)
b1100 .
#1720000
0!
0#
0)
#1725000
1!
1#
1)
b1100 .
#1730000
0!
0#
0)
#1735000
1!
1#
1)
b1100 .
#1740000
0!
0#
0)
#1745000
1!
1#
1)
b1100 .
#1750000
0!
0#
0)
#1755000
1!
1#
1)
b1100 .
#1760000
0!
0#
0)
#1765000
1!
1#
1)
b1100 .
#1770000
0!
0#
0)
#1775000
1!
1#
1)
b1100 .
#1780000
0!
0#
0)
#1785000
1!
1#
1)
b1100 .
#1790000
0!
0#
0)
#1795000
1!
1#
1)
b1100 .
#1800000
0!
0#
0)
#1805000
1!
1#
1)
b1100 .
#1810000
0!
0#
0)
#1815000
1!
1#
1)
b1100 .
#1820000
0!
0#
0)
#1825000
1!
1#
1)
b1100 .
#1830000
0!
0#
0)
#1835000
1!
1#
1)
b1100 .
#1840000
0!
0#
0)
#1845000
1!
1#
1)
b1100 .
#1850000
0!
0#
0)
#1855000
1!
1#
1)
b1100 .
#1860000
0!
0#
0)
#1865000
1!
1#
1)
b1100 .
#1870000
0!
0#
0)
#1875000
1!
1#
1)
b1100 .
#1880000
0!
0#
0)
#1885000
1!
1#
1)
b1100 .
#1890000
0!
0#
0)
#1895000
1!
1#
1)
b1100 .
#1900000
0!
0#
0)
#1905000
1!
1#
1)
b1100 .
#1910000
0!
0#
0)
#1915000
1!
1#
1)
b1100 .
#1920000
0!
0#
0)
#1925000
1!
1#
1)
b1100 .
#1930000
0!
0#
0)
#1935000
1!
1#
1)
b1100 .
#1940000
0!
0#
0)
#1945000
1!
1#
1)
b1100 .
#1950000
0!
0#
0)
#1955000
1!
1#
1)
b1100 .
#1960000
0!
0#
0)
#1965000
1!
1#
1)
b1100 .
#1970000
0!
0#
0)
#1975000
1!
1#
1)
b1100 .
#1980000
0!
0#
0)
#1985000
1!
1#
1)
b1100 .
#1990000
0!
0#
0)
#1995000
1!
1#
1)
b1100 .
#2000000
0!
0#
0)
#2005000
1!
1#
1)
b1100 .
#2010000
0!
0#
0)
#2015000
1!
1#
1)
b1100 .
#2020000
0!
0#
0)
#2025000
1!
1#
1)
b1100 .
#2030000
0!
0#
0)
#2035000
1!
1#
1)
b1100 .
#2040000
0!
0#
0)
#2045000
1!
1#
1)
b1100 .
#2050000
0!
0#
0)
#2055000
1!
1#
1)
b1100 .
#2060000
0!
0#
0)
#2065000
1!
1#
1)
b1100 .
#2070000
0!
0#
0)
#2075000
1!
1#
1)
b1100 .
#2080000
0!
0#
0)
#2085000
1!
1#
1)
b1100 .
#2090000
0!
0#
0)
#2095000
1!
1#
1)
b1100 .
#2100000
0!
0#
0)
#2105000
1!
1#
1)
b1100 .
#2110000
0!
0#
0)
#2115000
1!
1#
1)
b1100 .
#2120000
0!
0#
0)
#2125000
1!
1#
1)
b1100 .
#2130000
0!
0#
0)
#2135000
1!
1#
1)
b1100 .
#2140000
0!
0#
0)
#2145000
1!
1#
1)
b1100 .
#2150000
0!
0#
0)
#2155000
1!
1#
1)
b1100 .
#2160000
0!
0#
0)
#2165000
1!
1#
1)
b1100 .
#2170000
0!
0#
0)
#2175000
1!
1#
1)
b1100 .
#2180000
0!
0#
0)
#2185000
1!
1#
1)
b1100 .
#2190000
0!
0#
0)
#2195000
1!
1#
1)
b1100 .
#2200000
0!
0#
0)
#2205000
1!
1#
1)
b1100 .
#2210000
0!
0#
0)
#2215000
1!
1#
1)
b1100 .
#2220000
0!
0#
0)
#2225000
1!
1#
1)
b1100 .
#2230000
0!
0#
0)
#2235000
1!
1#
1)
b1100 .
#2240000
0!
0#
0)
#2245000
1!
1#
1)
b1100 .
#2250000
0!
0#
0)
#2255000
1!
1#
1)
b1100 .
#2260000
0!
0#
0)
#2265000
1!
1#
1)
b1100 .
#2270000
0!
0#
0)
#2275000
1!
1#
1)
b1100 .
#2280000
0!
0#
0)
#2285000
1!
1#
1)
b1100 .
#2290000
0!
0#
0)
#2295000
1!
1#
1)
b1100 .
#2300000
0!
0#
0)
#2305000
1!
1#
1)
b1100 .
#2310000
0!
0#
0)
#2315000
1!
1#
1)
b1100 .
#2320000
0!
0#
0)
#2325000
1!
1#
1)
b1100 .
#2330000
0!
0#
0)
#2335000
1!
1#
1)
b1100 .
#2340000
0!
0#
0)
#2345000
1!
1#
1)
b1100 .
#2350000
0!
0#
0)
#2355000
1!
1#
1)
b1100 .
#2360000
0!
0#
0)
#2365000
1!
1#
1)
b1100 .
#2370000
0!
0#
0)
#2375000
1!
1#
1)
b1100 .
#2380000
0!
0#
0)
#2385000
1!
1#
1)
b1100 .
#2390000
0!
0#
0)
#2395000
1!
1#
1)
b1100 .
#2400000
0!
0#
0)
#2405000
1!
1#
1)
b1100 .
#2410000
0!
0#
0)
#2415000
1!
1#
1)
b1100 .
#2420000
0!
0#
0)
#2425000
1!
1#
1)
b1100 .
#2430000
0!
0#
0)
#2435000
1!
1#
1)
b1100 .
#2440000
0!
0#
0)
#2445000
1!
1#
1)
b1100 .
#2450000
0!
0#
0)
#2455000
1!
1#
1)
b1100 .
#2460000
0!
0#
0)
#2465000
1!
1#
1)
b1100 .
#2470000
0!
0#
0)
#2475000
1!
1#
1)
b1100 .
#2480000
0!
0#
0)
#2485000
1!
1#
1)
b1100 .
#2490000
0!
0#
0)
#2495000
1!
1#
1)
b1100 .
#2500000
0!
0#
0)
#2505000
1!
1#
1)
b1100 .
#2510000
0!
0#
0)
#2515000
1!
1#
1)
b1100 .
#2520000
0!
0#
0)
#2525000
1!
1#
1)
b1100 .
#2530000
0!
0#
0)
#2535000
1!
1#
1)
b1100 .
#2540000
0!
0#
0)
#2545000
1!
1#
1)
b1100 .
#2550000
0!
0#
0)
#2555000
1!
1#
1)
b1100 .
#2560000
0!
0#
0)
#2565000
1!
1#
1)
b1100 .
#2570000
0!
0#
0)
#2575000
1!
1#
1)
b1100 .
#2580000
0!
0#
0)
#2585000
1!
1#
1)
b1100 .
#2590000
0!
0#
0)
#2595000
1!
1#
1)
b1100 .
#2600000
0!
0#
0)
#2605000
1!
1#
1)
b1100 .
#2610000
0!
0#
0)
#2615000
1!
1#
1)
b1100 .
#2620000
0!
0#
0)
#2625000
1!
1#
1)
b1100 .
#2630000
0!
0#
0)
#2635000
1!
1#
1)
b1100 .
#2640000
0!
0#
0)
#2645000
1!
1#
1)
b1100 .
#2650000
0!
0#
0)
#2655000
1!
1#
1)
b1100 .
#2660000
0!
0#
0)
#2665000
1!
1#
1)
b1100 .
#2670000
0!
0#
0)
#2675000
1!
1#
1)
b1100 .
#2680000
0!
0#
0)
#2685000
1!
1#
1)
b1100 .
#2690000
0!
0#
0)
#2695000
1!
1#
1)
b1100 .
#2700000
0!
0#
0)
#2705000
1!
1#
1)
b1100 .
#2710000
0!
0#
0)
#2715000
1!
1#
1)
b1100 .
#2720000
0!
0#
0)
#2725000
1!
1#
1)
b1100 .
#2730000
0!
0#
0)
#2735000
1!
1#
1)
b1100 .
#2740000
0!
0#
0)
#2745000
1!
1#
1)
b1100 .
#2750000
0!
0#
0)
#2755000
1!
1#
1)
b1100 .
#2760000
0!
0#
0)
#2765000
1!
1#
1)
b1100 .
#2770000
0!
0#
0)
#2775000
1!
1#
1)
b1100 .
#2780000
0!
0#
0)
#2785000
1!
1#
1)
b1100 .
#2790000
0!
0#
0)
#2795000
1!
1#
1)
b1100 .
#2800000
0!
0#
0)
#2805000
1!
1#
1)
b1100 .
#2810000
0!
0#
0)
#2815000
1!
1#
1)
b1100 .
#2820000
0!
0#
0)
#2825000
1!
1#
1)
b1100 .
#2830000
0!
0#
0)
#2835000
1!
1#
1)
b1100 .
#2840000
0!
0#
0)
#2845000
1!
1#
1)
b1100 .
#2850000
0!
0#
0)
#2855000
1!
1#
1)
b1100 .
#2860000
0!
0#
0)
#2865000
1!
1#
1)
b1100 .
#2870000
0!
0#
0)
#2875000
1!
1#
1)
b1100 .
#2880000
0!
0#
0)
#2885000
1!
1#
1)
b1100 .
#2890000
0!
0#
0)
#2895000
1!
1#
1)
b1100 .
#2900000
0!
0#
0)
#2905000
1!
1#
1)
b1100 .
#2910000
0!
0#
0)
#2915000
1!
1#
1)
b1100 .
#2920000
0!
0#
0)
#2925000
1!
1#
1)
b1100 .
#2930000
0!
0#
0)
#2935000
1!
1#
1)
b1100 .
#2940000
0!
0#
0)
#2945000
1!
1#
1)
b1100 .
#2950000
0!
0#
0)
#2955000
1!
1#
1)
b1100 .
#2960000
0!
0#
0)
#2965000
1!
1#
1)
b1100 .
#2970000
0!
0#
0)
#2975000
1!
1#
1)
b1100 .
#2980000
0!
0#
0)
#2985000
1!
1#
1)
b1100 .
#2990000
0!
0#
0)
#2995000
1!
1#
1)
b1100 .
#3000000
0!
0#
0)
#3005000
1!
1#
1)
b1100 .
#3010000
0!
0#
0)
#3015000
1!
1#
1)
b1100 .
#3020000
0!
0#
0)
#3025000
1!
1#
1)
b1100 .
#3030000
0!
0#
0)
#3035000
1!
1#
1)
b1100 .
#3040000
0!
0#
0)
#3045000
1!
1#
1)
b1100 .
#3050000
0!
0#
0)
#3055000
1!
1#
1)
b1100 .
#3060000
0!
0#
0)
#3065000
1!
1#
1)
b1100 .
#3070000
0!
0#
0)
#3075000
1!
1#
1)
b1100 .
#3080000
0!
0#
0)
#3085000
1!
1#
1)
b1100 .
#3090000
0!
0#
0)
#3095000
1!
1#
1)
b1100 .
#3100000
0!
0#
0)
#3105000
1!
1#
1)
b1100 .
#3110000
0!
0#
0)
#3115000
1!
1#
1)
b1100 .
#3120000
0!
0#
0)
#3125000
1!
1#
1)
b1100 .
#3130000
0!
0#
0)
#3135000
1!
1#
1)
b1100 .
#3140000
0!
0#
0)
#3145000
1!
1#
1)
b1100 .
#3150000
0!
0#
0)
#3155000
1!
1#
1)
b1100 .
#3160000
0!
0#
0)
#3165000
1!
1#
1)
b1100 .
#3170000
0!
0#
0)
#3175000
1!
1#
1)
b1100 .
#3180000
0!
0#
0)
#3185000
1!
1#
1)
b1100 .
#3190000
0!
0#
0)
#3195000
1!
1#
1)
b1100 .
#3200000
0!
0#
0)
#3205000
1!
1#
1)
b1100 .
#3210000
0!
0#
0)
#3215000
1!
1#
1)
b1100 .
#3220000
0!
0#
0)
#3225000
1!
1#
1)
b1100 .
#3230000
0!
0#
0)
#3235000
1!
1#
1)
b1100 .
#3240000
0!
0#
0)
#3245000
1!
1#
1)
b1100 .
#3250000
0!
0#
0)
#3255000
1!
1#
1)
b1100 .
#3260000
0!
0#
0)
#3265000
1!
1#
1)
b1100 .
#3270000
0!
0#
0)
#3275000
1!
1#
1)
b1100 .
#3280000
0!
0#
0)
#3285000
1!
1#
1)
b1100 .
#3290000
0!
0#
0)
#3295000
1!
1#
1)
b1100 .
#3300000
0!
0#
0)
#3305000
1!
1#
1)
b1100 .
#3310000
0!
0#
0)
#3315000
1!
1#
1)
b1100 .
#3320000
0!
0#
0)
#3325000
1!
1#
1)
b1100 .
#3330000
0!
0#
0)
#3335000
1!
1#
1)
b1100 .
#3340000
0!
0#
0)
#3345000
1!
1#
1)
b1100 .
#3350000
0!
0#
0)
#3355000
1!
1#
1)
b1100 .
#3360000
0!
0#
0)
#3365000
1!
1#
1)
b1100 .
#3370000
0!
0#
0)
#3375000
1!
1#
1)
b1100 .
#3380000
0!
0#
0)
#3385000
1!
1#
1)
b1100 .
#3390000
0!
0#
0)
#3395000
1!
1#
1)
b1100 .
#3400000
0!
0#
0)
#3405000
1!
1#
1)
b1100 .
#3410000
0!
0#
0)
#3415000
1!
1#
1)
b1100 .
#3420000
0!
0#
0)
#3425000
1!
1#
1)
b1100 .
#3430000
0!
0#
0)
#3435000
1!
1#
1)
b1100 .
#3440000
0!
0#
0)
#3445000
1!
1#
1)
b1100 .
#3450000
0!
0#
0)
#3455000
1!
1#
1)
b1100 .
#3460000
0!
0#
0)
#3465000
1!
1#
1)
b1100 .
#3470000
0!
0#
0)
#3475000
1!
1#
1)
b1100 .
#3480000
0!
0#
0)
#3485000
1!
1#
1)
b1100 .
#3490000
0!
0#
0)
#3495000
1!
1#
1)
b1100 .
#3500000
0!
0#
0)
#3505000
1!
1#
1)
b1100 .
#3510000
0!
0#
0)
#3515000
1!
1#
1)
b1100 .
#3520000
0!
0#
0)
#3525000
1!
1#
1)
b1100 .
#3530000
0!
0#
0)
#3535000
1!
1#
1)
b1100 .
#3540000
0!
0#
0)
#3545000
1!
1#
1)
b1100 .
#3550000
0!
0#
0)
#3555000
1!
1#
1)
b1100 .
#3560000
0!
0#
0)
#3565000
1!
1#
1)
b1100 .
#3570000
0!
0#
0)
#3575000
1!
1#
1)
b1100 .
#3580000
0!
0#
0)
#3585000
1!
1#
1)
b1100 .
#3590000
0!
0#
0)
#3595000
1!
1#
1)
b1100 .
#3600000
0!
0#
0)
#3605000
1!
1#
1)
b1100 .
#3610000
0!
0#
0)
#3615000
1!
1#
1)
b1100 .
#3620000
0!
0#
0)
#3625000
1!
1#
1)
b1100 .
#3630000
0!
0#
0)
#3635000
1!
1#
1)
b1100 .
#3640000
0!
0#
0)
#3645000
1!
1#
1)
b1100 .
#3650000
0!
0#
0)
#3655000
1!
1#
1)
b1100 .
#3660000
0!
0#
0)
#3665000
1!
1#
1)
b1100 .
#3670000
0!
0#
0)
#3675000
1!
1#
1)
b1100 .
#3680000
0!
0#
0)
#3685000
1!
1#
1)
b1100 .
#3690000
0!
0#
0)
#3695000
1!
1#
1)
b1100 .
#3700000
0!
0#
0)
#3705000
1!
1#
1)
b1100 .
#3710000
0!
0#
0)
#3715000
1!
1#
1)
b1100 .
#3720000
0!
0#
0)
#3725000
1!
1#
1)
b1100 .
#3730000
0!
0#
0)
#3735000
1!
1#
1)
b1100 .
#3740000
0!
0#
0)
#3745000
1!
1#
1)
b1100 .
#3750000
0!
0#
0)
#3755000
1!
1#
1)
b1100 .
#3760000
0!
0#
0)
#3765000
1!
1#
1)
b1100 .
#3770000
0!
0#
0)
#3775000
1!
1#
1)
b1100 .
#3780000
0!
0#
0)
#3785000
1!
1#
1)
b1100 .
#3790000
0!
0#
0)
#3795000
1!
1#
1)
b1100 .
#3800000
0!
0#
0)
#3805000
1!
1#
1)
b1100 .
#3810000
0!
0#
0)
#3815000
1!
1#
1)
b1100 .
#3820000
0!
0#
0)
#3825000
1!
1#
1)
b1100 .
#3830000
0!
0#
0)
#3835000
1!
1#
1)
b1100 .
#3840000
0!
0#
0)
#3845000
1!
1#
1)
b1100 .
#3850000
0!
0#
0)
#3855000
1!
1#
1)
b1100 .
#3860000
0!
0#
0)
#3865000
1!
1#
1)
b1100 .
#3870000
0!
0#
0)
#3875000
1!
1#
1)
b1100 .
#3880000
0!
0#
0)
#3885000
1!
1#
1)
b1100 .
#3890000
0!
0#
0)
#3895000
1!
1#
1)
b1100 .
#3900000
0!
0#
0)
#3905000
1!
1#
1)
b1100 .
#3910000
0!
0#
0)
#3915000
1!
1#
1)
b1100 .
#3920000
0!
0#
0)
#3925000
1!
1#
1)
b1100 .
#3930000
0!
0#
0)
#3935000
1!
1#
1)
b1100 .
#3940000
0!
0#
0)
#3945000
1!
1#
1)
b1100 .
#3950000
0!
0#
0)
#3955000
1!
1#
1)
b1100 .
#3960000
0!
0#
0)
#3965000
1!
1#
1)
b1100 .
#3970000
0!
0#
0)
#3975000
1!
1#
1)
b1100 .
#3980000
0!
0#
0)
#3985000
1!
1#
1)
b1100 .
#3990000
0!
0#
0)
#3995000
1!
1#
1)
b1100 .
#4000000
0!
0#
0)
#4005000
1!
1#
1)
b1100 .
#4010000
0!
0#
0)
#4015000
1!
1#
1)
b1100 .
#4020000
0!
0#
0)
#4025000
1!
1#
1)
b1100 .
#4030000
0!
0#
0)
#4035000
1!
1#
1)
b1100 .
#4040000
0!
0#
0)
#4045000
1!
1#
1)
b1100 .
#4050000
0!
0#
0)
#4055000
1!
1#
1)
b1100 .
#4060000
0!
0#
0)
